Year,Host_City,Host_Country,Number_of_events,Nations_Participating,Number_of_athletes
1980,Lake Placid,USA,38,37,1072
1984,Sarajevo,Yugoslavia,39,49,1272
1988,Calgary,Canada,46,57,1423
1992,Albertville,France,57,64,1801
1994,Lillehammer,Norway,61,67,1737
1998,Nagano,Japan,68,72,2176
2002,Salt Lake City,USA,78,78,2399
2006,Turin,Italy,84,80,2508
2010,Vancouver,Canada,86,82,2566
2014,Sochi,Russia,98,88,2873
